BRAMDumpData.vcd
$date
	Sun Aug 03 20:08:11 2025
$end
$version
	Icarus Verilog
$end
$timescale
	1ps
$end
$scope module BRAMDumpData_tb $end
$var wire 1 ! ena_pin $end
$var wire 1 " bram_we $end
$var wire 32 # bram_data_out [31:0] $end
$var wire 32 $ bram_data_in [31:0] $end
$var wire 32 % bram_addr [31:0] $end
$var reg 1 & clk $end
$var reg 32 ' cps [31:0] $end
$scope module pin_bram_inst $end
$var wire 1 & clka $end
$var wire 1 " wea $end
$var wire 1 ! ena $end
$var wire 32 ( dina [31:0] $end
$var wire 32 ) addra [31:0] $end
$var wire 13 * addr_index [12:0] $end
$var reg 32 + douta [31:0] $end
$var reg 32 , mem1 [31:0] $end
$var reg 32 - mem10 [31:0] $end
$var reg 32 . mem11 [31:0] $end
$var reg 32 / mem2 [31:0] $end
$var reg 32 0 mem3 [31:0] $end
$var reg 32 1 mem4 [31:0] $end
$var reg 32 2 mem5 [31:0] $end
$var reg 32 3 mem6 [31:0] $end
$var reg 32 4 mem7 [31:0] $end
$var reg 32 5 mem8 [31:0] $end
$var reg 32 6 mem9 [31:0] $end
$var integer 32 7 i [31:0] $end
$upscope $end
$scope module uut $end
$var wire 32 8 bram_data_out [31:0] $end
$var wire 1 & clk $end
$var wire 32 9 cps [31:0] $end
$var parameter 2 : CALC $end
$var parameter 2 ; DONE $end
$var parameter 2 < READ $end
$var parameter 2 = WRITE $end
$var reg 32 > bram_addr [31:0] $end
$var reg 32 ? bram_data_in [31:0] $end
$var reg 1 " bram_we $end
$var reg 1 ! ena_pin $end
$var reg 4 @ index [3:0] $end
$var reg 2 A state [1:0] $end
$upscope $end
$upscope $end
$enddefinitions $end
$comment Show the parameter values. $end
$dumpall
b10 =
b0 <
b11 ;
b1 :
$end
#0
$dumpvars
b11 A
b0 @
bx ?
bx >
b0 9
bx 8
b1111101000000 7
bx 6
bx 5
bx 4
bx 3
bx 2
bx 1
bx 0
bx /
bx .
bx -
bx ,
bx +
bx *
bx )
bx (
b0 '
0&
bx %
bx $
bx #
x"
x!
$end
#5000
0"
0!
1&
#10000
0&
b1 '
b1 9
#15000
b0 A
1!
1&
#20000
0&
b10 '
b10 9
#25000
b0 *
b1 @
b0 %
b0 )
b0 >
b0 .
b0 -
b0 6
b0 5
b0 4
b0 3
b0 2
b0 1
b0 0
b0 /
b0 ,
1&
#30000
0&
#35000
b1 *
b0 #
b0 +
b0 8
b10 @
b1 %
b1 )
b1 >
1&
#40000
0&
#45000
b10 *
b11 @
b10 %
b10 )
b10 >
1&
#50000
0&
#55000
b11 *
b100 @
b11 %
b11 )
b11 >
1&
#60000
0&
#65000
b100 *
b101 @
b100 %
b100 )
b100 >
1&
#70000
0&
#75000
b101 *
b110 @
b101 %
b101 )
b101 >
1&
#80000
0&
#85000
b110 *
b111 @
b110 %
b110 )
b110 >
1&
#90000
0&
#95000
b111 *
b1000 @
b111 %
b111 )
b111 >
1&
#100000
0&
#105000
b1000 *
b1001 @
b1000 %
b1000 )
b1000 >
1&
#110000
0&
#115000
b1001 *
b1010 @
b1001 %
b1001 )
b1001 >
1&
#120000
0&
#125000
b1010 *
b1 A
b0 @
b1010 %
b1010 )
b1010 >
1&
#130000
0&
#135000
b1 @
1&
#140000
0&
#145000
b10 @
1&
#150000
0&
#155000
b11 @
1&
#160000
0&
#165000
b100 @
1&
#170000
0&
#175000
b101 @
1&
#180000
0&
#185000
b110 @
1&
#190000
0&
#195000
b111 @
1&
#200000
0&
#205000
b1000 @
1&
#210000
0&
#215000
b1001 @
1&
#220000
0&
#225000
b1010 @
1&
#230000
0&
#235000
b10 A
b0 @
1&
#240000
0&
#245000
b0 *
b1 @
b0 %
b0 )
b0 >
1"
1&
#250000
0&
#255000
b1 *
bx ,
bx #
bx +
bx 8
b10 @
b1 %
b1 )
b1 >
1&
#260000
0&
#265000
b10 *
b11 @
b1 $
b1 (
b1 ?
b10 %
b10 )
b10 >
1&
#270000
0&
#275000
b11 *
b1 #
b1 +
b1 8
b100 @
b11 %
b11 )
b11 >
1&
#280000
0&
#285000
b100 *
b101 @
b100 %
b100 )
b100 >
1&
#290000
0&
#295000
b101 *
b1 /
b110 @
b101 %
b101 )
b101 >
1&
#300000
0&
#305000
b110 *
b111 @
b110 %
b110 )
b110 >
1&
#310000
0&
#315000
b111 *
b1000 @
b111 %
b111 )
b111 >
1&
#320000
0&
#325000
b1000 *
b1001 @
b1000 %
b1000 )
b1000 >
1&
#330000
0&
#335000
b1001 *
b1 0
b1010 @
b1001 %
b1001 )
b1001 >
1&
#340000
0&
#345000
b1010 *
0"
b11 A
b0 @
b1010 %
b1010 )
b1010 >
1&
#350000
0&
#355000
b0 #
b0 +
b0 8
0!
1&
