Verilog_file/PulseGenNut.vcd
$date
	Sun Aug 03 18:30:43 2025
$end
$version
	Icarus Verilog
$end
$timescale
	1ps
$end
$scope module tb_PulseGenNut $end
$var wire 1 ! ena_pulse $end
$var wire 1 " ena_pin $end
$var wire 1 # bram_we_pulse $end
$var wire 1 $ bram_we_pin $end
$var wire 32 % bram_data_out_pulse [31:0] $end
$var wire 32 & bram_data_in_pulse [31:0] $end
$var wire 32 ' bram_data_in [31:0] $end
$var wire 32 ( bram_addr_pulse [31:0] $end
$var wire 32 ) bram_addr [31:0] $end
$var reg 1 * clk $end
$var reg 32 + cps [31:0] $end
$scope module pin_bram_inst $end
$var wire 1 * clka $end
$var wire 1 $ wea $end
$var wire 1 " ena $end
$var wire 32 , dina [31:0] $end
$var wire 32 - addra [31:0] $end
$var wire 13 . addr_index [12:0] $end
$var reg 32 / douta [31:0] $end
$var reg 32 0 mem1 [31:0] $end
$var reg 32 1 mem2 [31:0] $end
$var reg 32 2 mem3 [31:0] $end
$var reg 32 3 mem4 [31:0] $end
$var reg 32 4 mem5 [31:0] $end
$var reg 32 5 mem6 [31:0] $end
$var integer 32 6 i [31:0] $end
$upscope $end
$scope module pulse_bram_inst $end
$var wire 1 * clka $end
$var wire 1 # wea $end
$var wire 1 ! ena $end
$var wire 32 7 dina [31:0] $end
$var wire 32 8 addra [31:0] $end
$var wire 13 9 addr_index [12:0] $end
$var reg 32 : douta [31:0] $end
$var reg 32 ; mem1 [31:0] $end
$var reg 32 < mem2 [31:0] $end
$var reg 32 = mem3 [31:0] $end
$var reg 32 > mem4 [31:0] $end
$var reg 32 ? mem5 [31:0] $end
$var reg 32 @ mem6 [31:0] $end
$var integer 32 A i [31:0] $end
$upscope $end
$scope module uut $end
$var wire 32 B bram_data_out_pulse [31:0] $end
$var wire 1 * clk $end
$var wire 32 C cps [31:0] $end
$var wire 32 D fp_add_result [31:0] $end
$var reg 32 E bram_addr [31:0] $end
$var reg 32 F bram_addr_pulse [31:0] $end
$var reg 32 G bram_data_in [31:0] $end
$var reg 32 H bram_data_in_pulse [31:0] $end
$var reg 1 $ bram_we_pin $end
$var reg 1 # bram_we_pulse $end
$var reg 32 I count [31:0] $end
$var reg 1 " ena_pin $end
$var reg 1 ! ena_pulse $end
$var reg 32 J fp_table_input [31:0] $end
$var reg 11 K lfsr [10:0] $end
$var reg 4 L mem_control_state [3:0] $end
$var reg 32 M mem_count [31:0] $end
$var reg 32 N prev_cps [31:0] $end
$var reg 32 O prev_mem_val [31:0] $end
$scope module adder_inst $end
$var wire 32 P a [31:0] $end
$var wire 32 Q b [31:0] $end
$var wire 1 R sign_b $end
$var wire 1 S sign_a $end
$var wire 32 T result [31:0] $end
$var wire 24 U mant_b [23:0] $end
$var wire 24 V mant_a [23:0] $end
$var wire 8 W exp_b [7:0] $end
$var wire 8 X exp_a [7:0] $end
$var reg 24 Y aligned_a [23:0] $end
$var reg 24 Z aligned_b [23:0] $end
$var reg 8 [ exp_diff [7:0] $end
$var reg 8 \ exp_res [7:0] $end
$var reg 23 ] frac_res [22:0] $end
$var reg 25 ^ mant_sum [24:0] $end
$var reg 1 _ sign_res $end
$upscope $end
$upscope $end
$upscope $end
$enddefinitions $end
$comment Show the parameter values. $end
$dumpall
$end
#0
$dumpvars
x_
b0 ^
b0 ]
bx \
bx [
bx Z
bx Y
bx X
bx W
bx V
bx U
bx00000000000000000000000 T
xS
xR
bx Q
bx P
b0 O
b0 N
b0 M
b0 L
b10101010101 K
bx J
b0 I
bx H
bx G
bx F
bx E
bx00000000000000000000000 D
b0 C
bx B
b1111101000000 A
bx @
bx ?
bx >
bx =
bx <
bx ;
bx :
bx 9
bx 8
bx 7
b1111101000000 6
bx 5
bx 4
bx 3
bx 2
bx 1
bx 0
bx /
bx .
bx -
bx ,
b0 +
0*
bx )
bx (
bx '
bx &
bx %
x$
x#
x"
x!
$end
#5000
b0 9
b0 .
b0 (
b0 8
b0 F
0!
0#
0"
0$
b1010101011 K
b0 )
b0 -
b0 E
1*
#10000
0*
#15000
b10101010111 K
1*
#20000
0*
#25000
b1010101111 K
1*
#30000
0*
#35000
b10101011111 K
1*
#40000
0*
#45000
b1010111111 K
1*
#50000
0*
#55000
b10101111111 K
1*
#60000
0*
#65000
b1011111111 K
1*
#70000
0*
b1 +
b1 C
#75000
b1 N
b10111111111 K
1*
#80000
0*
#85000
b1011111111100 9
b1011111111100 .
b1 L
b1 M
1!
1"
1$
b1011111111100 (
b1011111111100 8
b1011111111100 F
b1 &
b1 7
b1 H
b1011111111100 )
b1011111111100 -
b1011111111100 E
b1 '
b1 ,
b1 G
b1111111110 K
1*
#90000
0*
#95000
b0 V
b1000110011100111000001 ]
b101000110011100111000001 ^
0_
b111101101000110011100111000001 D
b111101101000110011100111000001 T
b1111011 \
b101000110011100111000001 Z
b0 Y
b1111011 [
b101000110011100111000001 U
0S
b0 X
0R
b1111011 W
b0 @
b0 ?
b0 >
b0 =
b0 <
b0 ;
b0 %
b0 :
b0 B
b0 P
b0 5
b0 4
b0 3
b0 2
b0 1
b0 0
b1 /
b10 L
b111101101000110011100111000001 J
b111101101000110011100111000001 Q
0!
1*
#100000
0*
#105000
b0 L
b10 M
b111101101000110011100111000001 &
b111101101000110011100111000001 7
b111101101000110011100111000001 H
1!
1#
1*
#110000
0*
#115000
b111110001000110011100111000001 D
b111110001000110011100111000001 T
b1111100 \
b101000110011100111000001 ^
b101000110011100111000001 Y
b0 [
b101000110011100111000001 V
b1111011 X
b1100000000000 9
b111101101000110011100111000001 %
b111101101000110011100111000001 :
b111101101000110011100111000001 B
b111101101000110011100111000001 P
b1 L
0#
b1100000000000 (
b1100000000000 8
b1100000000000 F
1*
#120000
0*
#125000
b10110011010110101000011 ]
b110110011010110101000011 ^
b110110011010110101000011 Z
b110110011010110101000011 U
b111111010110011010110101000011 D
b111111010110011010110101000011 T
b1111110 \
b0 Y
b1111110 [
b0 V
b1111110 W
b0 X
b10 L
b111111010110011010110101000011 J
b111111010110011010110101000011 Q
0!
b0 %
b0 :
b0 B
b0 P
1*
#130000
0*
#135000
b0 L
b11 M
b111111010110011010110101000011 &
b111111010110011010110101000011 7
b111111010110011010110101000011 H
1!
1#
1*
#140000
0*
#145000
b111111110110011010110101000011 D
b111111110110011010110101000011 T
b1111111 \
b110110011010110101000011 ^
b110110011010110101000011 Y
b0 [
b110110011010110101000011 V
b1100000000100 9
b1111110 X
b1 L
0#
b1100000000100 (
b1100000000100 8
b1100000000100 F
b111111010110011010110101000011 %
b111111010110011010110101000011 :
b111111010110011010110101000011 B
b111111010110011010110101000011 P
1*
#150000
0*
#155000
b11100111010001010011100 ]
b111100111010001010011100 ^
b111111011100111010001010011100 D
b111111011100111010001010011100 T
b1111110 \
b111100111010001010011100 Z
b0 Y
b1111110 [
b0 V
b111100111010001010011100 U
b0 X
b0 %
b0 :
b0 B
b0 P
b10 L
b111111011100111010001010011100 J
b111111011100111010001010011100 Q
0!
1*
#160000
0*
#165000
b0 L
b100 M
b111111011100111010001010011100 &
b111111011100111010001010011100 7
b111111011100111010001010011100 H
1!
1#
1*
#170000
0*
#175000
b111111111100111010001010011100 D
b111111111100111010001010011100 T
b1111111 \
b111100111010001010011100 ^
b111100111010001010011100 Y
b0 [
b111100111010001010011100 V
b1111110 X
b1100000001000 9
b111111011100111010001010011100 %
b111111011100111010001010011100 :
b111111011100111010001010011100 B
b111111011100111010001010011100 P
b1 L
0#
b1100000001000 (
b1100000001000 8
b1100000001000 F
1*
#180000
0*
#185000
b11001010010010101000110 ]
b111001010010010101000110 ^
b111001010010010101000110 Z
b111001010010010101000110 U
b111111011001010010010101000110 D
b111111011001010010010101000110 T
b1111110 \
b0 Y
b1111110 [
b0 V
b0 X
b10 L
b111111011001010010010101000110 J
b111111011001010010010101000110 Q
0!
b0 %
b0 :
b0 B
b0 P
1*
#190000
0*
#195000
b0 L
b101 M
b111111011001010010010101000110 &
b111111011001010010010101000110 7
b111111011001010010010101000110 H
1!
1#
1*
#200000
0*
#205000
b111111111001010010010101000110 D
b111111111001010010010101000110 T
b1111111 \
b111001010010010101000110 ^
b111001010010010101000110 Y
b0 [
b111001010010010101000110 V
b1100000001100 9
b1111110 X
b1 L
0#
b1100000001100 (
b1100000001100 8
b1100000001100 F
b111111011001010010010101000110 %
b111111011001010010010101000110 :
b111111011001010010010101000110 B
b111111011001010010010101000110 P
1*
#210000
0*
#215000
b10011101100010101101101 ]
b110011101100010101101101 ^
b111111010011101100010101101101 D
b111111010011101100010101101101 T
b1111110 \
b110011101100010101101101 Z
b0 Y
b1111110 [
b0 V
b110011101100010101101101 U
b0 X
b0 %
b0 :
b0 B
b0 P
b10 L
b111111010011101100010101101101 J
b111111010011101100010101101101 Q
0!
1*
#220000
0*
#225000
b0 L
b110 M
b111111010011101100010101101101 &
b111111010011101100010101101101 7
b111111010011101100010101101101 H
1!
1#
1*
#230000
0*
#235000
b111111110011101100010101101101 D
b111111110011101100010101101101 T
b1111111 \
b110011101100010101101101 ^
b110011101100010101101101 Y
b0 [
b110011101100010101101101 V
b1111110 X
b1100000010000 9
b111111010011101100010101101101 %
b111111010011101100010101101101 :
b111111010011101100010101101101 B
b111111010011101100010101101101 P
b1 L
0#
b1100000010000 (
b1100000010000 8
b1100000010000 F
1*
#240000
0*
#245000
b1110001000110011100111 ]
b101110001000110011100111 ^
b101110001000110011100111 Z
b101110001000110011100111 U
b111111001110001000110011100111 D
b111111001110001000110011100111 T
b1111110 \
b0 Y
b1111110 [
b0 V
b0 X
b10 L
b111111001110001000110011100111 J
b111111001110001000110011100111 Q
0!
b0 %
b0 :
b0 B
b0 P
1*
#250000
0*
#255000
b0 L
b111 M
b111111001110001000110011100111 &
b111111001110001000110011100111 7
b111111001110001000110011100111 H
1!
1#
1*
#260000
0*
#265000
b111111101110001000110011100111 D
b111111101110001000110011100111 T
b1111111 \
b101110001000110011100111 ^
b101110001000110011100111 Y
b0 [
b101110001000110011100111 V
b1100000010100 9
b1111110 X
b1 L
0#
b1100000010100 (
b1100000010100 8
b1100000010100 F
b111111001110001000110011100111 %
b111111001110001000110011100111 :
b111111001110001000110011100111 B
b111111001110001000110011100111 P
1*
#270000
0*
#275000
b1001000010110000111101 ]
b101001000010110000111101 ^
b111111001001000010110000111101 D
b111111001001000010110000111101 T
b1111110 \
b101001000010110000111101 Z
b0 Y
b1111110 [
b0 V
b101001000010110000111101 U
b0 X
b0 %
b0 :
b0 B
b0 P
b10 L
b111111001001000010110000111101 J
b111111001001000010110000111101 Q
0!
1*
#280000
0*
#285000
b0 L
b1000 M
b111111001001000010110000111101 &
b111111001001000010110000111101 7
b111111001001000010110000111101 H
1!
1#
1*
#290000
0*
#295000
b111111101001000010110000111101 D
b111111101001000010110000111101 T
b1111111 \
b101001000010110000111101 ^
b101001000010110000111101 Y
b0 [
b101001000010110000111101 V
b1111110 X
b1100000011000 9
b111111001001000010110000111101 %
b111111001001000010110000111101 :
b111111001001000010110000111101 B
b111111001001000010110000111101 P
b1 L
0#
b1100000011000 (
b1100000011000 8
b1100000011000 F
1*
#300000
0*
#305000
b100011110101110000101 ]
b100100011110101110000101 ^
b100100011110101110000101 Z
b100100011110101110000101 U
b111111000100011110101110000101 D
b111111000100011110101110000101 T
b1111110 \
b0 Y
b1111110 [
b0 V
b0 X
b10 L
b111111000100011110101110000101 J
b111111000100011110101110000101 Q
0!
b0 %
b0 :
b0 B
b0 P
1*
#310000
0*
#315000
b0 L
b1001 M
b111111000100011110101110000101 &
b111111000100011110101110000101 7
b111111000100011110101110000101 H
1!
1#
1*
#320000
0*
#325000
b111111100100011110101110000101 D
b111111100100011110101110000101 T
b1111111 \
b100100011110101110000101 ^
b100100011110101110000101 Y
b0 [
b100100011110101110000101 V
b1100000011100 9
b1111110 X
b1 L
0#
b1100000011100 (
b1100000011100 8
b1100000011100 F
b111111000100011110101110000101 %
b111111000100011110101110000101 :
b111111000100011110101110000101 B
b111111000100011110101110000101 P
1*
#330000
0*
#335000
b11010100111111100 ]
b100000011010100111111100 ^
b111111000000011010100111111100 D
b111111000000011010100111111100 T
b1111110 \
b100000011010100111111100 Z
b0 Y
b1111110 [
b0 V
b100000011010100111111100 U
b0 X
b0 %
b0 :
b0 B
b0 P
b10 L
b111111000000011010100111111100 J
b111111000000011010100111111100 Q
0!
1*
#340000
0*
#345000
b0 L
b1010 M
b111111000000011010100111111100 &
b111111000000011010100111111100 7
b111111000000011010100111111100 H
1!
1#
1*
#350000
0*
#355000
b111111100000011010100111111100 D
b111111100000011010100111111100 T
b1111111 \
b100000011010100111111100 ^
b100000011010100111111100 Y
b0 [
b100000011010100111111100 V
b1111110 X
b1100000100000 9
b111111000000011010100111111100 %
b111111000000011010100111111100 :
b111111000000011010100111111100 B
b111111000000011010100111111100 P
b1 L
0#
b1100000100000 (
b1100000100000 8
b1100000100000 F
1*
#360000
0*
#365000
b11001100111001110000010 ]
b111001100111001110000010 ^
b111001100111001110000010 Z
b111001100111001110000010 U
b111110111001100111001110000010 D
b111110111001100111001110000010 T
b1111101 \
b0 Y
b1111101 [
b0 V
b1111101 W
b0 X
b10 L
b111110111001100111001110000010 J
b111110111001100111001110000010 Q
0!
b0 %
b0 :
b0 B
b0 P
1*
#370000
0*
#375000
b0 L
b1011 M
b111110111001100111001110000010 &
b111110111001100111001110000010 7
b111110111001100111001110000010 H
1!
1#
1*
#380000
0*
#385000
b111111011001100111001110000010 D
b111111011001100111001110000010 T
b1111110 \
b111001100111001110000010 ^
b111001100111001110000010 Y
b0 [
b111001100111001110000010 V
b1100000100100 9
b1111101 X
b1 L
0#
b1100000100100 (
b1100000100100 8
b1100000100100 F
b111110111001100111001110000010 %
b111110111001100111001110000010 :
b111110111001100111001110000010 B
b111110111001100111001110000010 P
1*
#390000
0*
#395000
b10011001011111110110001 ]
b110011001011111110110001 ^
b111110110011001011111110110001 D
b111110110011001011111110110001 T
b1111101 \
b110011001011111110110001 Z
b0 Y
b1111101 [
b0 V
b110011001011111110110001 U
b0 X
b0 %
b0 :
b0 B
b0 P
b10 L
b111110110011001011111110110001 J
b111110110011001011111110110001 Q
0!
1*
#400000
0*
#405000
b0 L
b1100 M
b111110110011001011111110110001 &
b111110110011001011111110110001 7
b111110110011001011111110110001 H
1!
1#
1*
#410000
0*
#415000
b111111010011001011111110110001 D
b111111010011001011111110110001 T
b1111110 \
b110011001011111110110001 ^
b110011001011111110110001 Y
b0 [
b110011001011111110110001 V
b1111101 X
b1100000101000 9
b111110110011001011111110110001 %
b111110110011001011111110110001 :
b111110110011001011111110110001 B
b111110110011001011111110110001 P
b1 L
0#
b1100000101000 (
b1100000101000 8
b1100000101000 F
1*
#420000
0*
#425000
b1101011111011011111101 ]
b101101011111011011111101 ^
b101101011111011011111101 Z
b101101011111011011111101 U
b111110101101011111011011111101 D
b111110101101011111011011111101 T
b1111101 \
b0 Y
b1111101 [
b0 V
b0 X
b10 L
b111110101101011111011011111101 J
b111110101101011111011011111101 Q
0!
b0 %
b0 :
b0 B
b0 P
1*
#430000
0*
#435000
b0 L
b1101 M
b111110101101011111011011111101 &
b111110101101011111011011111101 7
b111110101101011111011011111101 H
1!
1#
1*
#440000
0*
#445000
b111111001101011111011011111101 D
b111111001101011111011011111101 T
b1111110 \
b101101011111011011111101 ^
b101101011111011011111101 Y
b0 [
b101101011111011011111101 V
b1100000101100 9
b1111101 X
b1 L
0#
b1100000101100 (
b1100000101100 8
b1100000101100 F
b111110101101011111011011111101 %
b111110101101011111011011111101 :
b111110101101011111011011111101 B
b111110101101011111011011111101 P
1*
#450000
0*
#455000
b1000011011000010001010 ]
b101000011011000010001010 ^
b111110101000011011000010001010 D
b111110101000011011000010001010 T
b1111101 \
b101000011011000010001010 Z
b0 Y
b1111101 [
b0 V
b101000011011000010001010 U
b0 X
b0 %
b0 :
b0 B
b0 P
b10 L
b111110101000011011000010001010 J
b111110101000011011000010001010 Q
0!
1*
#460000
0*
#465000
b0 L
b1110 M
b111110101000011011000010001010 &
b111110101000011011000010001010 7
b111110101000011011000010001010 H
1!
1#
1*
#470000
0*
#475000
b111111001000011011000010001010 D
b111111001000011011000010001010 T
b1111110 \
b101000011011000010001010 ^
b101000011011000010001010 Y
b0 [
b101000011011000010001010 V
b1111101 X
b1100000110000 9
b111110101000011011000010001010 %
b111110101000011011000010001010 :
b111110101000011011000010001010 B
b111110101000011011000010001010 P
b1 L
0#
b1100000110000 (
b1100000110000 8
b1100000110000 F
1*
#480000
0*
#485000
b11111010101011001110 ]
b100011111010101011001110 ^
b100011111010101011001110 Z
b100011111010101011001110 U
b111110100011111010101011001110 D
b111110100011111010101011001110 T
b1111101 \
b0 Y
b1111101 [
b0 V
b0 X
b10 L
b111110100011111010101011001110 J
b111110100011111010101011001110 Q
0!
b0 %
b0 :
b0 B
b0 P
1*
#490000
0*
#495000
b0 L
b1111 M
b111110100011111010101011001110 &
b111110100011111010101011001110 7
b111110100011111010101011001110 H
1!
1#
1*
#500000
0*
#505000
b111111000011111010101011001110 D
b111111000011111010101011001110 T
b1111110 \
b100011111010101011001110 ^
b100011111010101011001110 Y
b0 [
b100011111010101011001110 V
b1100000110100 9
b1111101 X
b1 L
0#
b1100000110100 (
b1100000110100 8
b1100000110100 F
b111110100011111010101011001110 %
b111110100011111010101011001110 :
b111110100011111010101011001110 B
b111110100011111010101011001110 P
1*
#510000
0*
#515000
b0 V
b11111110100100010000000 ]
b111111110100100010000000 ^
b111110011111110100100010000000 D
b111110011111110100100010000000 T
b1111100 \
b111111110100100010000000 Z
b0 Y
b1111100 [
b111111110100100010000000 U
b0 X
b1111100 W
b0 %
b0 :
b0 B
b0 P
b10 L
b111110011111110100100010000000 J
b111110011111110100100010000000 Q
0!
1*
#520000
0*
#525000
b0 L
b10000 M
b111110011111110100100010000000 &
b111110011111110100100010000000 7
b111110011111110100100010000000 H
1!
1#
1*
#530000
0*
#535000
b111110111111110100100010000000 D
b111110111111110100100010000000 T
b1111101 \
b111111110100100010000000 ^
b111111110100100010000000 Y
b0 [
b111111110100100010000000 V
b1111100 X
b1100000111000 9
b111110011111110100100010000000 %
b111110011111110100100010000000 :
b111110011111110100100010000000 B
b111110011111110100100010000000 P
b1 L
0#
b1100000111000 (
b1100000111000 8
b1100000111000 F
1*
#540000
0*
#545000
b11000101101000011100101 ]
b111000101101000011100101 ^
b111000101101000011100101 Z
b111000101101000011100101 U
b111110011000101101000011100101 D
b111110011000101101000011100101 T
b1111100 \
b0 Y
b1111100 [
b0 V
b0 X
b10 L
b111110011000101101000011100101 J
b111110011000101101000011100101 Q
0!
b0 %
b0 :
b0 B
b0 P
1*
#550000
0*
#555000
b0 L
b10001 M
b111110011000101101000011100101 &
b111110011000101101000011100101 7
b111110011000101101000011100101 H
1!
1#
1*
#560000
0*
#565000
b111110111000101101000011100101 D
b111110111000101101000011100101 T
b1111101 \
b111000101101000011100101 ^
b111000101101000011100101 Y
b0 [
b111000101101000011100101 V
b1100000111100 9
b1111100 X
b1 L
0#
b1100000111100 (
b1100000111100 8
b1100000111100 F
b111110011000101101000011100101 %
b111110011000101101000011100101 :
b111110011000101101000011100101 B
b111110011000101101000011100101 P
1*
#570000
0*
b0 +
b0 C
#575000
b111110011000101101000011100101 D
b111110011000101101000011100101 T
b1111100 \
b0 Y
b1111100 [
b0 V
b0 X
b0 9
b0 .
b0 %
b0 :
b0 B
b0 P
b0 L
b0 M
b0 (
b0 8
b0 F
0!
0"
0$
b0 N
b11111111101 K
b0 )
b0 -
b0 E
1*
#580000
0*
#585000
b11111111010 K
1*
#590000
0*
#595000
b11111110100 K
1*
#600000
0*
#605000
b11111101000 K
1*
#610000
0*
#615000
b11111010000 K
1*
#620000
0*
b1 +
b1 C
#625000
b1 N
b11110100000 K
1*
#630000
0*
#635000
b1111010000000 9
b1111010000000 .
b1 L
b1 M
1!
1"
1$
b1111010000000 (
b1111010000000 8
b1111010000000 F
b1 &
b1 7
b1 H
b1111010000000 )
b1111010000000 -
b1111010000000 E
b11101000000 K
1*
#640000
0*
#645000
b1000110011100111000001 ]
b101000110011100111000001 ^
b111101101000110011100111000001 D
b111101101000110011100111000001 T
b1111011 \
b101000110011100111000001 Z
b1111011 [
b101000110011100111000001 U
b1111011 W
b10 L
b111101101000110011100111000001 J
b111101101000110011100111000001 Q
0!
1*
#650000
0*
#655000
b0 L
b10 M
b111101101000110011100111000001 &
b111101101000110011100111000001 7
b111101101000110011100111000001 H
1!
1#
1*
#660000
0*
#665000
b111110001000110011100111000001 D
b111110001000110011100111000001 T
b1111100 \
b101000110011100111000001 ^
b101000110011100111000001 Y
b0 [
b101000110011100111000001 V
b1111010000100 9
b1111011 X
b1 L
0#
b1111010000100 (
b1111010000100 8
b1111010000100 F
b111101101000110011100111000001 %
b111101101000110011100111000001 :
b111101101000110011100111000001 B
b111101101000110011100111000001 P
1*
#670000
0*
#675000
b0 V
b10110011010110101000011 ]
b110110011010110101000011 ^
b111111010110011010110101000011 D
b111111010110011010110101000011 T
b1111110 \
b110110011010110101000011 Z
b0 Y
b1111110 [
b110110011010110101000011 U
b0 X
b1111110 W
b0 %
b0 :
b0 B
b0 P
b10 L
b111111010110011010110101000011 J
b111111010110011010110101000011 Q
0!
1*
#680000
0*
#685000
b0 L
b11 M
b111111010110011010110101000011 &
b111111010110011010110101000011 7
b111111010110011010110101000011 H
1!
1#
1*
#690000
0*
#695000
b111111110110011010110101000011 D
b111111110110011010110101000011 T
b1111111 \
b110110011010110101000011 ^
b110110011010110101000011 Y
b0 [
b110110011010110101000011 V
b1111110 X
b1111010001000 9
b111111010110011010110101000011 %
b111111010110011010110101000011 :
b111111010110011010110101000011 B
b111111010110011010110101000011 P
b1 L
0#
b1111010001000 (
b1111010001000 8
b1111010001000 F
1*
#700000
0*
#705000
b11100111010001010011100 ]
b111100111010001010011100 ^
b111100111010001010011100 Z
b111100111010001010011100 U
b111111011100111010001010011100 D
b111111011100111010001010011100 T
b1111110 \
b0 Y
b1111110 [
b0 V
b0 X
b10 L
b111111011100111010001010011100 J
b111111011100111010001010011100 Q
0!
b0 %
b0 :
b0 B
b0 P
1*
#710000
0*
#715000
b0 L
b100 M
b111111011100111010001010011100 &
b111111011100111010001010011100 7
b111111011100111010001010011100 H
1!
1#
1*
#720000
0*
#725000
b111111111100111010001010011100 D
b111111111100111010001010011100 T
b1111111 \
b111100111010001010011100 ^
b111100111010001010011100 Y
b0 [
b111100111010001010011100 V
b1111010001100 9
b1111110 X
b1 L
0#
b1111010001100 (
b1111010001100 8
b1111010001100 F
b111111011100111010001010011100 %
b111111011100111010001010011100 :
b111111011100111010001010011100 B
b111111011100111010001010011100 P
1*
#730000
0*
#735000
b11001010010010101000110 ]
b111001010010010101000110 ^
b111111011001010010010101000110 D
b111111011001010010010101000110 T
b1111110 \
b111001010010010101000110 Z
b0 Y
b1111110 [
b0 V
b111001010010010101000110 U
b0 X
b0 %
b0 :
b0 B
b0 P
b10 L
b111111011001010010010101000110 J
b111111011001010010010101000110 Q
0!
1*
#740000
0*
#745000
b0 L
b101 M
b111111011001010010010101000110 &
b111111011001010010010101000110 7
b111111011001010010010101000110 H
1!
1#
1*
#750000
0*
#755000
b111111111001010010010101000110 D
b111111111001010010010101000110 T
b1111111 \
b111001010010010101000110 ^
b111001010010010101000110 Y
b0 [
b111001010010010101000110 V
b1111110 X
b1111010010000 9
b111111011001010010010101000110 %
b111111011001010010010101000110 :
b111111011001010010010101000110 B
b111111011001010010010101000110 P
b1 L
0#
b1111010010000 (
b1111010010000 8
b1111010010000 F
1*
#760000
0*
#765000
b10011101100010101101101 ]
b110011101100010101101101 ^
b110011101100010101101101 Z
b110011101100010101101101 U
b111111010011101100010101101101 D
b111111010011101100010101101101 T
b1111110 \
b0 Y
b1111110 [
b0 V
b0 X
b10 L
b111111010011101100010101101101 J
b111111010011101100010101101101 Q
0!
b0 %
b0 :
b0 B
b0 P
1*
#770000
0*
#775000
b0 L
b110 M
b111111010011101100010101101101 &
b111111010011101100010101101101 7
b111111010011101100010101101101 H
1!
1#
1*
#780000
0*
#785000
b111111110011101100010101101101 D
b111111110011101100010101101101 T
b1111111 \
b110011101100010101101101 ^
b110011101100010101101101 Y
b0 [
b110011101100010101101101 V
b1111010010100 9
b1111110 X
b1 L
0#
b1111010010100 (
b1111010010100 8
b1111010010100 F
b111111010011101100010101101101 %
b111111010011101100010101101101 :
b111111010011101100010101101101 B
b111111010011101100010101101101 P
1*
#790000
0*
#795000
b1110001000110011100111 ]
b101110001000110011100111 ^
b111111001110001000110011100111 D
b111111001110001000110011100111 T
b1111110 \
b101110001000110011100111 Z
b0 Y
b1111110 [
b0 V
b101110001000110011100111 U
b0 X
b0 %
b0 :
b0 B
b0 P
b10 L
b111111001110001000110011100111 J
b111111001110001000110011100111 Q
0!
1*
#800000
0*
#805000
b0 L
b111 M
b111111001110001000110011100111 &
b111111001110001000110011100111 7
b111111001110001000110011100111 H
1!
1#
1*
#810000
0*
#815000
b111111101110001000110011100111 D
b111111101110001000110011100111 T
b1111111 \
b101110001000110011100111 ^
b101110001000110011100111 Y
b0 [
b101110001000110011100111 V
b1111110 X
b1111010011000 9
b111111001110001000110011100111 %
b111111001110001000110011100111 :
b111111001110001000110011100111 B
b111111001110001000110011100111 P
b1 L
0#
b1111010011000 (
b1111010011000 8
b1111010011000 F
1*
#820000
0*
#825000
b1001000010110000111101 ]
b101001000010110000111101 ^
b101001000010110000111101 Z
b101001000010110000111101 U
b111111001001000010110000111101 D
b111111001001000010110000111101 T
b1111110 \
b0 Y
b1111110 [
b0 V
b0 X
b10 L
b111111001001000010110000111101 J
b111111001001000010110000111101 Q
0!
b0 %
b0 :
b0 B
b0 P
1*
#830000
0*
#835000
b0 L
b1000 M
b111111001001000010110000111101 &
b111111001001000010110000111101 7
b111111001001000010110000111101 H
1!
1#
1*
#840000
0*
#845000
b111111101001000010110000111101 D
b111111101001000010110000111101 T
b1111111 \
b101001000010110000111101 ^
b101001000010110000111101 Y
b0 [
b101001000010110000111101 V
b1111010011100 9
b1111110 X
b1 L
0#
b1111010011100 (
b1111010011100 8
b1111010011100 F
b111111001001000010110000111101 %
b111111001001000010110000111101 :
b111111001001000010110000111101 B
b111111001001000010110000111101 P
1*
#850000
0*
#855000
b100011110101110000101 ]
b100100011110101110000101 ^
b111111000100011110101110000101 D
b111111000100011110101110000101 T
b1111110 \
b100100011110101110000101 Z
b0 Y
b1111110 [
b0 V
b100100011110101110000101 U
b0 X
b0 %
b0 :
b0 B
b0 P
b10 L
b111111000100011110101110000101 J
b111111000100011110101110000101 Q
0!
1*
#860000
0*
#865000
b0 L
b1001 M
b111111000100011110101110000101 &
b111111000100011110101110000101 7
b111111000100011110101110000101 H
1!
1#
1*
#870000
0*
#875000
b111111100100011110101110000101 D
b111111100100011110101110000101 T
b1111111 \
b100100011110101110000101 ^
b100100011110101110000101 Y
b0 [
b100100011110101110000101 V
b1111110 X
b1111010100000 9
b111111000100011110101110000101 %
b111111000100011110101110000101 :
b111111000100011110101110000101 B
b111111000100011110101110000101 P
b1 L
0#
b1111010100000 (
b1111010100000 8
b1111010100000 F
1*
#880000
0*
#885000
b11010100111111100 ]
b100000011010100111111100 ^
b100000011010100111111100 Z
b100000011010100111111100 U
b111111000000011010100111111100 D
b111111000000011010100111111100 T
b1111110 \
b0 Y
b1111110 [
b0 V
b0 X
b10 L
b111111000000011010100111111100 J
b111111000000011010100111111100 Q
0!
b0 %
b0 :
b0 B
b0 P
1*
#890000
0*
#895000
b0 L
b1010 M
b111111000000011010100111111100 &
b111111000000011010100111111100 7
b111111000000011010100111111100 H
1!
1#
1*
#900000
0*
#905000
b111111100000011010100111111100 D
b111111100000011010100111111100 T
b1111111 \
b100000011010100111111100 ^
b100000011010100111111100 Y
b0 [
b100000011010100111111100 V
b1111010100100 9
b1111110 X
b1 L
0#
b1111010100100 (
b1111010100100 8
b1111010100100 F
b111111000000011010100111111100 %
b111111000000011010100111111100 :
b111111000000011010100111111100 B
b111111000000011010100111111100 P
1*
#910000
0*
#915000
b0 V
b11001100111001110000010 ]
b111001100111001110000010 ^
b111110111001100111001110000010 D
b111110111001100111001110000010 T
b1111101 \
b111001100111001110000010 Z
b0 Y
b1111101 [
b111001100111001110000010 U
b0 X
b1111101 W
b0 %
b0 :
b0 B
b0 P
b10 L
b111110111001100111001110000010 J
b111110111001100111001110000010 Q
0!
1*
#920000
0*
#925000
b0 L
b1011 M
b111110111001100111001110000010 &
b111110111001100111001110000010 7
b111110111001100111001110000010 H
1!
1#
1*
#930000
0*
#935000
b111111011001100111001110000010 D
b111111011001100111001110000010 T
b1111110 \
b111001100111001110000010 ^
b111001100111001110000010 Y
b0 [
b111001100111001110000010 V
b1111101 X
b1111010101000 9
b111110111001100111001110000010 %
b111110111001100111001110000010 :
b111110111001100111001110000010 B
b111110111001100111001110000010 P
b1 L
0#
b1111010101000 (
b1111010101000 8
b1111010101000 F
1*
#940000
0*
#945000
b10011001011111110110001 ]
b110011001011111110110001 ^
b110011001011111110110001 Z
b110011001011111110110001 U
b111110110011001011111110110001 D
b111110110011001011111110110001 T
b1111101 \
b0 Y
b1111101 [
b0 V
b0 X
b10 L
b111110110011001011111110110001 J
b111110110011001011111110110001 Q
0!
b0 %
b0 :
b0 B
b0 P
1*
#950000
0*
#955000
b0 L
b1100 M
b111110110011001011111110110001 &
b111110110011001011111110110001 7
b111110110011001011111110110001 H
1!
1#
1*
#960000
0*
